<svg width="1252px" height="81px" viewBox="0 0 1252 81" version="1.1" xmlns="http://www.w3.org/2000/svg" xmlns:xlink="http://www.w3.org/1999/xlink">
  <g id="spod_04" fill="#900077">
      <path d="M3.78579869,75 C3.56757628,74.9106583 3.3525502,74.8119121 3.1306956,74.7331503 C1.27609567,74.0746958 0.0203724357,72.3632431 0.0138344806,70.3852346 C-0.00156603579,65.8549619 -0.00868514243,61.3245421 0.0171761021,56.7942694 C0.0321407548,54.1870482 0.805653484,51.78305 2.13997747,49.566405 C4.64866348,45.3986423 8.37471671,42.6907647 12.7246362,40.5662533 C12.5199255,41.8227685 12.2883366,42.9786273 12.149732,44.1458007 C11.7699494,47.3465273 11.7048605,50.5465192 12.4501873,53.7087466 C12.5712121,54.2224616 12.2973445,54.4058473 12.0218786,54.6747541 C10.2766805,56.3776841 9.69770825,58.4492957 10.3775103,60.7792343 C11.0512102,63.0875721 12.6611453,64.4945575 14.9962123,64.954932 C18.331877,65.6126518 21.591992,63.1084381 21.9297863,59.6845041 C22.2748451,56.1869513 19.600095,53.1333152 16.1508152,53.0882035 C15.8858101,53.0846769 15.6206597,53.0877627 15.2285277,53.0877627 C15.1044518,52.2913281 14.918338,51.4876933 14.8629833,50.674948 C14.613524,47.0066466 14.8914598,43.391245 15.9944854,39.8620994 C16.1574984,39.3404494 16.4249734,39.067575 16.9494627,38.908729 C25.4944247,36.321786 34.0187558,36.3457378 42.5201315,39.0949066 C42.8022805,39.1861586 43.150245,39.492683 43.2211455,39.7645288 C44.0811045,43.0645893 43.6968181,46.3633273 43.1716024,49.6118106 C42.0770034,49.6714698 41.0036164,49.6178353 39.9748329,49.8087151 C37.637296,50.2429336 35.9106947,51.660646 34.5494925,53.5748809 C33.2616606,55.3861084 32.434682,57.4136369 31.8514964,59.549022 C31.7310527,59.9901468 31.5623735,60.3009327 31.1401669,60.5573493 C29.6724686,61.4490034 29.3008222,63.3744061 30.2652432,64.7856529 C31.2158618,66.1766215 33.1768125,66.4813826 34.5009663,65.4442544 C35.8344186,64.3996319 36.0532222,62.435877 34.9288392,61.1458587 C34.6080435,60.7776179 34.5666365,60.4809386 34.7037882,60.0374627 C35.270411,58.2044876 35.9762196,56.4445435 37.1635122,54.9207378 C38.7644395,52.8663186 40.8021021,52.1289554 43.3383929,52.7780055 C45.8684362,53.4255862 47.3295965,55.0501952 47.7945177,57.6146558 C48.1588998,59.6244041 47.9477965,61.617107 47.4885414,63.583213 C47.4360925,63.8070082 47.089145,64.0100843 46.835763,64.1279331 C45.6127295,64.6958703 44.8954432,65.9475364 45.064413,67.2872216 C45.2214692,68.5331568 46.2342711,69.612458 47.4543988,69.8343429 C48.7380173,70.0678363 50.0304984,69.4383297 50.6229824,68.2677766 C51.1256785,67.2747314 51.0457702,66.3035808 50.5424929,65.3164134 C50.3748307,64.9872596 50.2819917,64.535114 50.3526016,64.1793634 C50.9160281,61.3386487 51.1573513,58.5076323 50.272548,55.6876367 C49.6154109,53.592955 48.3676785,51.9614396 46.4429045,50.9085884 C46.057601,50.6978712 45.9730435,50.4958236 46.0321756,50.0539641 C46.2624569,48.33296 46.5081388,46.6071069 46.5942945,44.875229 C46.6630156,43.4926362 46.5087199,42.0987287 46.4503142,40.6339944 C47.2717719,41.0795275 48.1137152,41.4986108 48.9191913,41.9795574 C52.1541715,43.9111317 54.9451518,46.3265914 56.8989834,49.6254764 C58.2973793,51.986567 59.0120505,54.5391252 58.9998463,57.3043108 C58.98154,61.491764 58.9924366,65.6793642 58.9965047,69.8668174 C58.9989746,72.4997538 57.8580288,74.0874799 55.38581,74.8765673 C55.3233362,74.8965517 55.2735025,74.9579741 55.2177119,75 L3.78579869,75 Z" id="Fill-1"></path>
      <path d="M31.5750143,0 C32.43838,0.186161945 33.3117143,0.334484921 34.1632333,0.564407199 C41.3299198,2.49953823 46.3205666,9.24585068 45.9839464,16.521331 C45.6312898,24.1464607 40.249268,30.3857021 32.8596609,31.7362066 C23.5955273,33.4292838 14.8831329,26.7772799 14.0620976,17.3839728 C13.3118536,8.80203714 19.4419523,1.21431313 27.9980278,0.129547916 C28.1341206,0.112361515 28.2638566,0.0443380271 28.3966265,0 L31.5750143,0 Z" id="Fill-3"></path>
  </g>   
</svg>